Alicia en el país de las maravillas:Bryan Andres:2021-04-18:2021-05-03
El hobbit:Gema Moron:2021-04-18:2021-05-03
El campamento:Valeriano Gamero:2021-04-26:2021-05-11
Harry Potter y la piedra filosofal:Valeriano Gamero:2021-04-26:2021-05-11
Independencia:Zaira Moreira:2021-04-28:2021-05-13
El diario de Anna Frank:Gema Moron:2021-04-28:2021-05-13
